00000000                                     1  *----------------------------------------------------------------------
00000000                                     2  * Programmer: Troy Mathis
00000000                                     3  * Class Account: masc1125
00000000                                     4  * Assignment or Title: "What Day is it?" - Program #2
00000000                                     5  * Filename: prog2.s
00000000                                     6  * Date completed:  03/07/2014
00000000                                     7  *----------------------------------------------------------------------
00000000                                     8  * Problem statement: Write a program that takes an input a date, and 
00000000                                     9  * 		     prints the day of the week for that date.
00000000                                    10  * Input: Prompts the user for a date in (MM/DD/YYYY) format.
00000000                                    11  * Output: Displays the day of the inputted date.
00000000                                    12  * Error conditions tested: none
00000000                                    13  * Included files: prog2.s
00000000                                    14  * Method and/or pseudocode: Prompt the user for a date in (MM/DD/YYYY)
00000000                                    15  * 			    format.Calculate a, m, y, and then d using
00000000                                    16  *                           provided formulas. Use d to find the day of
00000000                                    17  *                           the week, then lineout the result.
00000000                                    18  * References: 
00000000                                    19  * Version 1.0 - 03/07/14 - Objective completed.
00000000                                    20  * Version 1.1 - 03/20/14 - Optimized the code slightly. Added documentation.
00000000                                    21  *----------------------------------------------------------------------
00000000                                    22  *
00000000                                    23          ORG     $0
00000000  00003000                          24          DC.L    $3000           * Stack pointer value after a reset
00000004  00003000                          25          DC.L    start           * Program counter value after a reset
00003000                                    26          ORG     $3000           * Start at location 3000 Hex
00003000                                    27  *
00003000                                    28  *----------------------------------------------------------------------
00003000                                    29  *
00003000                                    30  *  File: /home/ma/cs237/bsvc/iomacs.s
00003000                                    31  *  I/O initialization and macro definitions for use with 68kpp.  
00003000                                    32  *  Macros by Alan Riggins and Sara Baase
00003000                                    33  *  Trap14 atof by Huijuan Hyun, Summer 2004.
00003000                                    34  *  All other trap14 code written by Alan Riggins, summer 2012
00003000                                    35  *  Last modified: August 15,2012 by Alan Riggins
00003000                                    36  *
00003000                                    37  *  Trap code definitions, etc.
00003000                                    38  *
00003000  =00000000                         39  .INIT13 equ     $0000        	*Initialize I/O (SCI)
00003000  =00000000                         40  .INIT14 equ     $0000
00003000  =00000001                         41  .INSTR  equ     $0001           *Input a line from keyboard
00003000  =00000001                         42  .INFLO  equ     $0001
00003000  =00000002                         43  .INCHR  equ     $0002           *Input a character from keyboard
00003000  =00000002                         44  .ATOUN	equ     $0002		*convert string to unpack floating number
00003000  =00000003                         45  .UNTOPA	equ     $0003
00003000  =00000003                         46  .OUTCHR equ     $0003           *Output a character to screen
00003000  =00000004                         47  .PATOUN	equ     $0004
00003000  =00000006                         48  .ADD	equ     $0006		*Add two floating point numbers
00003000  =00000004                         49  .OUTSTR equ     $0004           *Output a string
00003000  =00000007                         50  .MUL	equ     $0007		*Multiply two floating point numbers
00003000  =00000008                         51  .DIV	equ     $0008
00003000  =00000005                         52  .CVTA2  equ     $0005           *Convert ascii to 2's complement
00003000  =00000005                         53  .FTOA	equ     $0005
00003000  =00000006                         54  .CVT2A  equ     $0006           *Convert 2's complement to ascii
00003000  =00000009                         55  .SQRT   equ     $0009
00003000  =0000000A                         56  .CMP    equ     $000A
00003000  =0000000B                         57  .POW    equ     $000B
00003000  =0000000C                         58  .ITOF   equ     $000C           * convert int to float
00003000  =0000000D                         59  .FTOI   equ     $000D           * convert float to int
00003000  =000000B4                         60  VEC13	equ     (32+13)*4       *Trap 13 vector address
00003000  =000000B8                         61  VEC14	equ     (32+14)*4
00003000  =00005000                         62  ADDR13  equ     $5000           *Trap 13 handler address
00003000  =00005200                         63  ADDR14	equ     $5200
00003000  =0000000A                         64  LINEFEED equ	10	        *LineFeed Character value
00003000  =0000000D                         65  CARR_RETURN equ 13	        *CarriageReturn Character value
00003000                                    66  *
00003000                                    67  
00003000                                    68  
00003000                                    69      
00003000                                    70          
00003000                                    71  
00003000                                    72  
00003000                                    73  * Two args, first the destination, second the number of digits to print
00003000                                    74  * The source must be in D0 as a longword
00003000                                    75      
00003000                                    76  
00003000                                    77  
00003000                                    78  
00003000                                    79  
00003000                                    80  
00003000                                    81  
00003000                                    82  
00003000                                    83  
00003000                                    84  * Sets the CCR
00003000                                    85  
00003000                                    86      
00003000                                    87      
00003000                                    88      
00003000                                    89              
00003000                                    90  ** trap13 macros follow
00003000                                    91  
00003000                                    92      
00003000                                    93      
00003000                                    94      
00003000                                    95    
00003000                                    96       
00003000                                    97   
00003000                                    98                    		
00003000                                    99                    		
00003000                                   100  
00003000                                   101  *===================
00003000                                   102  *
00003000                                   103  *  File: evtmacs.s
00003000                                   104  *  EVT initialization and macro definitions for use with 68kpp.  
00003000                                   105  *  Macro by Huijuan Yin
00003000                                   106  *  Last modified: December 2003
00003000                                   107  *
00003000                                   108  
00003000                                   109  
00003000                                   110  
00003000                                   111  *
00003000                                   112  *----------------------------------------------------------------------
00003000                                   113  *
00003000                                   114  * Register use:
00003000                                   115  * D0 - Interacting with macros. 'd' gets placed into here.
00003000                                   116  * D1 - The 'd' variable in the formula.
00003000                                   117  * D2 - The 'm' variable in the formula.
00003000                                   118  * D3 - The 'y' variable in the formula.
00003000                                   119  * D4 - The 'a' variable in the formula.
00003000                                   120  * D5 - Temporarily used for calculations.
00003000                                   121  * D6 - Temporarily used for calculations.
00003000                                   122  *
00003000                                   123  * A2 - Used for actualdate and moving the day of the week into it.
00003000                                   124  * A3 - Used for the date strings to move the right day into actualdate.
00003000                                   125  *
00003000                                   126  *----------------------------------------------------------------------
00003000                                   127  *
00003000                                   128  start:
00003000                                   129  *       start: initIO 
00003000  21FC 00005000 00B4               130     move.l  #ADDR13,VEC13
00003008  4E4D                             131     trap    #13
0000300A  0000                             132     dc.w    .INIT13
0000300C                                   133  *       END OF MACRO EXPANSION
0000300C                                   134  
0000300C                                   135  *       setEVT  
0000300C  21FC 00005F00 0008               136  	move.l	#$5f00,8
00003014  21FC 00005F80 000C               137  	move.l	#$5f80,12
0000301C  21FC 00006100 0010               138  	move.l	#$6100,16
00003024  21FC 00006900 0014               139  	move.l 	#$6900,20
0000302C                                   140  *       END OF MACRO EXPANSION
0000302C                                   141  
0000302C                                   142  *	initF				* For floating point macros only	
0000302C                                   143  					
0000302C                                   144  *       lineout title 
0000302C  4879 00003164                    145  	pea	title
00003032  4E4D                             146  	trap	#13
00003034  0004                             147  	dc.w	.OUTSTR
00003036  DFFC 00000004                    148  	adda.l	#4,sp
0000303C                                   149  *       END OF MACRO EXPANSION
0000303C                                   150  
0000303C                                   151  *       lineout askfordate 
0000303C  4879 00003186                    152  	pea	askfordate
00003042  4E4D                             153  	trap	#13
00003044  0004                             154  	dc.w	.OUTSTR
00003046  DFFC 00000004                    155  	adda.l	#4,sp
0000304C                                   156  *       END OF MACRO EXPANSION
0000304C                                   157  
0000304C                                   158  *       linein buffer 
0000304C  4879 000031A1                    159  	pea	buffer
00003052  4E4D                             160  	trap	#13
00003054  0001                             161  	dc.w	.INSTR
00003056  DFFC 00000004                    162  	adda.l	#4,sp
0000305C  4A80                             163  	tst.l   d0
0000305E                                   164  *       END OF MACRO EXPANSION
0000305E                                   165  
0000305E                                   166  *       cvta2 buffer+0,#2 
0000305E  3F3C 0002                        167  	move.w  #2,-(sp)
00003062  4879 000031A1                    168  	pea     buffer+0
00003068  4E4D                             169  	trap    #13
0000306A  0005                             170  	dc.w    .CVTA2
0000306C  DFFC 00000006                    171  	adda.l  #6,sp
00003072                                   172  *       END OF MACRO EXPANSION
00003072                                   173  
00003072  33C0 000031F4                    174  	move.w		D0,inputMM
00003078                                   175  *       cvta2 buffer+3,#2 
00003078  3F3C 0002                        176  	move.w  #2,-(sp)
0000307C  4879 000031A4                    177  	pea     buffer+3
00003082  4E4D                             178  	trap    #13
00003084  0005                             179  	dc.w    .CVTA2
00003086  DFFC 00000006                    180  	adda.l  #6,sp
0000308C                                   181  *       END OF MACRO EXPANSION
0000308C                                   182  
0000308C  33C0 000031F2                    183  	move.w		D0,inputDD
00003092                                   184  *       cvta2 buffer+6,#4 
00003092  3F3C 0004                        185  	move.w  #4,-(sp)
00003096  4879 000031A7                    186  	pea     buffer+6
0000309C  4E4D                             187  	trap    #13
0000309E  0005                             188  	dc.w    .CVTA2
000030A0  DFFC 00000006                    189  	adda.l  #6,sp
000030A6                                   190  *       END OF MACRO EXPANSION
000030A6                                   191  
000030A6  33C0 000031F6                    192  	move.w		D0,inputYY
000030AC                                   193  		
000030AC  4281                             194  	clr.l		D1		* Clear data registers of any nonsense.
000030AE  4280                             195  	clr.l		D0
000030B0                                   196  	
000030B0                                   197  	** a = (14 - inputMM) / 12
000030B0  4284                             198  	clr.l		D4		* Find (a) and put it in D4.
000030B2  3239 000031F4                    199  	move.w		inputMM,D1
000030B8  303C 000E                        200  	move.w		#14,D0
000030BC  9081                             201  	sub.l		D1,D0
000030BE  323C 000C                        202  	move.w		#12,D1
000030C2  81C1                             203  	divs		D1,D0
000030C4  3800                             204  	move.w		D0,D4		* (a) is in D4 now.
000030C6                                   205  	
000030C6                                   206  	** y = inputYY - a
000030C6  4283                             207  	clr.l		D3		* Find (y) and put it in D3.
000030C8  3639 000031F6                    208  	move.w		inputYY,D3
000030CE  9684                             209  	sub.l		D4,D3		* (y) is in D3 now.
000030D0                                   210  	
000030D0                                   211  	** m = inputMM + (12 * a) - 2
000030D0  4282                             212  	clr.l		D2		* Find (m) and put it in D2.
000030D2  3439 000031F4                    213  	move.w		inputMM,D2
000030D8  2A04                             214  	move.l		D4,D5
000030DA  CBFC 000C                        215  	muls		#12,D5
000030DE  D485                             216  	add.l		D5,D2
000030E0  4285                             217  	clr.l		D5
000030E2  1A3C 0002                        218  	move.b		#2,D5
000030E6  9485                             219  	sub.l		D5,D2		* (m) is in D2 now.
000030E8                                   220  	
000030E8                                   221  	** d = (inputDD + y + (y / 4) - (y / 100) + (y / 400) + ((31 * m) / 12)) % 7
000030E8  4281                             222  	clr.l		D1		* Find (d) and put it in D1.
000030EA  3239 000031F2                    223  	move.w		inputDD,D1	* Start the calculations.
000030F0  D283                             224  	add.l		D3,D1		* + y
000030F2                                   225  	
000030F2  4285                             226  	clr.l		D5		* + (y / 4)
000030F4  7A04                             227  	move.l		#4,D5
000030F6  2C03                             228  	move.l		D3,D6
000030F8  8DC5                             229  	divs		D5,D6
000030FA  3A06                             230  	move.w		D6,D5
000030FC  D285                             231  	add.l		D5,D1
000030FE                                   232  	
000030FE  4285                             233  	clr.l		D5		* - (y / 100)
00003100  7A64                             234  	move.l		#100,D5
00003102  2C03                             235  	move.l		D3,D6
00003104  8DC5                             236  	divs		D5,D6
00003106  3A06                             237  	move.w		D6,D5
00003108  9285                             238  	sub.l		D5,D1
0000310A                                   239  	
0000310A  4285                             240  	clr.l		D5		* + (y / 400)
0000310C  2A3C 00000190                    241  	move.l		#400,D5
00003112  2C03                             242  	move.l		D3,D6
00003114  8DC5                             243  	divs		D5,D6
00003116  3A06                             244  	move.w		D6,D5
00003118  D285                             245  	add.l		D5,D1
0000311A                                   246  	
0000311A  4285                             247  	clr.l		D5		* + ((31 * m) / 12)
0000311C  4286                             248  	clr.l		D6
0000311E  2A02                             249  	move.l		D2,D5
00003120  CBFC 001F                        250  	muls		#31,D5
00003124  7C0C                             251  	move.l		#12,D6
00003126  8BC6                             252  	divs		D6,D5
00003128  3C05                             253  	move.w		D5,D6
0000312A  D286                             254  	add.l		D6,D1
0000312C                                   255  	
0000312C  4285                             256  	clr.l		D5		* (above results) % 7
0000312E  2A01                             257  	move.l		D1,D5
00003130  8BFC 0007                        258  	divs		#7,D5
00003134  4845                             259  	swap		D5		* Swap for remainder.	
00003136  3205                             260  	move.w		D5,D1		* (d) is in D1 now.
00003138                                   261  
00003138  C3FC 000C                        262  	muls		#12,D1		* Get the start of the day string.	
0000313C  45F9 0000325A                    263  	lea		actualdate,A2
00003142  47F9 000031F8                    264  	lea		daystrings,A3
00003148  D7C1                             265  	adda.l		D1,A3		
0000314A  24DB                             266  	move.l		(A3)+,(A2)+
0000314C  24DB                             267  	move.l		(A3)+,(A2)+
0000314E  24DB                             268  	move.l		(A3)+,(A2)+
00003150                                   269  	
00003150  4212                             270  	clr.b		(A2)		* NULL terminate result.
00003152                                   271  *       lineout result 
00003152  4879 0000324C                    272  	pea	result
00003158  4E4D                             273  	trap	#13
0000315A  0004                             274  	dc.w	.OUTSTR
0000315C  DFFC 00000004                    275  	adda.l	#4,sp
00003162                                   276  *       END OF MACRO EXPANSION
00003162                                   277  
00003162                                   278  
00003162  4848                             279          break                   	* Terminate execution
00003164                                   280  *
00003164                                   281  *----------------------------------------------------------------------
00003164                                   282  *       Storage declarations
00003164                                   283  
00003164                                   284  					* Your storage declarations go 
00003164                                   285  					* HERE
00003164  50 72 6F 67 72 61 6D 20 23 ...   286  title:		dc.b	'Program #2, Troy Mathis, masc1125',0
00003186  45 6E 74 65 72 20 61 20 64 ...   287  askfordate:	dc.b	'Enter a date (MM/DD/YYYY):',0
000031A1                                   288  buffer:		ds.b	80
000031F2                                   289  inputDD:	ds.w	1
000031F4                                   290  inputMM:	ds.w	1
000031F6                                   291  inputYY		ds.w	1
000031F8  53 75 6E 64 61 79 2E 20 20 ...   292  daystrings:	dc.b	'Sunday.     '	* Longest day is Wednesday, so
00003204  4D 6F 6E 64 61 79 2E 20 20 ...   293  		dc.b	'Monday.     '	* make all the strings the same.
00003210  54 75 65 73 64 61 79 2E 20 ...   294  		dc.b	'Tuesday.    ' 	* Period added to strings because
0000321C  57 65 64 6E 65 73 64 61 79 ...   295  		dc.b	'Wednesday.  '	* days vary in length. Make them 
00003228  54 68 75 72 73 64 61 79 2E ...   296  		dc.b	'Thursday.   '  * 12 characters each for 3 longs.
00003234  46 72 69 64 61 79 2E 20 20 ...   297  		dc.b	'Friday.     '
00003240  53 61 74 75 72 64 61 79 2E ...   298  		dc.b	'Saturday.   '
0000324C  54 68 61 74 20 64 61 79 20 ...   299  result:		dc.b	'That day is a '
0000325A                                   300  actualdate:	ds.b	36		* 36 bytes again.
0000327E                                   301          end

No errors detected
No warnings generated
